…
    ## 
    ## ℹ Use `spec()` to retrieve the full column specification for this data.
    ## ℹ Specify the column types or set `show_col_types = FALSE` to quiet this message.

``` r
youtube
```

    ## # A tibble: 247 × 25
    ##     year brand     superbowl_ads_d… youtube_url funny show_product_qu… patriotic
    ##    <dbl> <chr>     <chr>            <chr>       <lgl> <lgl>            <lgl>    
    ##  1  2018 Toyota    https://superbo… https://ww… FALSE FALSE            FALSE    
    ##  2  2020 Bud Light https://superbo… https://ww… TRUE  TRUE             FALSE    
    ##  3  2006 Bud Light https://superbo… https://ww… TRUE  FALSE            FALSE    
    ##  4  2018 Hynudai   https://superbo… https://ww… FALSE TRUE             FALSE    
    ##  5  2003 Bud Light https://superbo… https://ww… TRUE  TRUE             FALSE    
    ##  6  2020 Toyota    https://superbo… https://ww… TRUE  TRUE             FALSE    
    ##  7  2020 Coca-Cola https://superbo… https://ww… TRUE  FALSE            FALSE    
    ##  8  2020 Kia       https://superbo… https://ww… FALSE FALSE            FALSE    
    ##  9  2020 Hynudai   https://superbo… https://ww… TRUE  TRUE             FALSE    
    ## 10  2020 Budweiser https://superbo… https://ww… FALSE TRUE             TRUE     
    ## # … with 237 more rows, and 18 more variables: celebrity <lgl>, danger <lgl>,
    ## #   animals <lgl>, use_sex <lgl>, id <chr>, kind <chr>, etag <chr>,
    ## #   view_count <dbl>, like_count <dbl>, dislike_count <dbl>,
    ## #   favorite_count <dbl>, comment_count <dbl>, published_at <dttm>,
    ## #   title <chr>, description <chr>, thumbnail <chr>, channel_title <chr>,
    ## #   category_id <dbl>
…
